tf-idf • scNLP
…
print(wordcloud_res$tfidf_df)

## Registered S3 method overwritten by 'cli':
##   method     from         
##   print.boxx spatstat.geom

## # A tibble: 147 x 8
## # Groups:   cluster [15]
##    cluster word        n total samples      tf   idf tf_idf
##    <fct>   <chr>   <int> <int>   <int>   <dbl> <dbl>  <dbl>
##  1 0       lpn         3   154     129 0.0195   2.71 0.0528
##  2 0       adpn        4   154     129 0.0260   2.01 0.0523
##  3 0       neuron      6   154     129 0.0390   1.10 0.0428
##  4 0       neurons     5   154     129 0.0325   1.10 0.0357
##  5 0       ex6a        2   154     129 0.0130   2.71 0.0352
##  6 0       pm1         2   154     129 0.0130   2.71 0.0352
##  7 0       proc        2   154     129 0.0130   2.71 0.0352
##  8 0       c2          1   154     129 0.00649  2.71 0.0176
##  9 0       c3          1   154     129 0.00649  2.71 0.0176
## 10 0       ca1pyr1     1   154     129 0.00649  2.71 0.0176
## # … with 137 more rows
…
